{
  "versions": [
    {
      "code": 200,
      "type": "pad",
      "url": "http://relearn.local:9001/p/copy-files-to-the-server"
    },
    {
      "path": "publish/copy-files-to-the-server",
      "code": 200,
      "url": "publish/copy-files-to-the-server",
      "type": "text"
    },
    {
      "message": "internal error",
      "code": 200,
      "type": "diffhtml"
    },
    {
      "path": "publish/copy-files-to-the-server.raw.html",
      "code": 200,
      "url": "publish/copy-files-to-the-server.raw.html",
      "type": "html"
    },
    {
      "path": "publish/copy-files-to-the-server.meta.json",
      "url": "publish/copy-files-to-the-server.meta.json",
      "type": "meta"
    }
  ],
  "author_ids": [
    "a.P9JnMUlgVfucmHkq",
    "a.j4y0kzZ3Pa8eXTtu",
    "a.SnNSfLOVuEHmqxZy"
  ],
  "lastedited_raw": 1567957366744,
  "revisions": 586,
  "pad": "copy-files-to-the-server",
  "padid": "copy-files-to-the-server",
  "lastedited_iso": "2019-09-08T16:42:46.744000",
  "group": "",
  "pathbase": "publish/copy-files-to-the-server"
}