{
  "author_ids": [
    "a.vnvNrfsxcmTYMzbh",
    "a.HVnrZtHcecKlJj2m"
  ],
  "group": "",
  "padid": "reroamingmotd",
  "lastedited_raw": 1560093451239,
  "pad": "reroamingmotd",
  "revisions": 2498,
  "pathbase": "publish/reroamingmotd",
  "lastedited_iso": "2019-06-09T16:17:31.239000",
  "versions": [
    {
      "type": "pad",
      "code": 200,
      "url": "http://relearn.local:9001/p/reroamingmotd"
    },
    {
      "type": "text",
      "code": 200,
      "path": "publish/reroamingmotd",
      "url": "publish/reroamingmotd"
    },
    {
      "type": "diffhtml",
      "code": 200,
      "message": "internal error"
    },
    {
      "type": "html",
      "code": 200,
      "path": "publish/reroamingmotd.raw.html",
      "url": "publish/reroamingmotd.raw.html"
    },
    {
      "type": "meta",
      "path": "publish/reroamingmotd.meta.json",
      "url": "publish/reroamingmotd.meta.json"
    }
  ]
}