{
  "author_ids": [
    "a.VzXNczxhKLu0VnUD",
    "a.Id50CSDXrn7IRe1w",
    "a.vnvNrfsxcmTYMzbh",
    "a.MeQCNLQjXn6HsIVR",
    "a.5z4de3olwasTLU1k",
    "a.HrOivP6YtRtQobC2",
    "a.RsuWz0ASDG3sdo7p"
  ],
  "pathbase": "publish/reroaming",
  "pad": "reroaming",
  "revisions": 3422,
  "padid": "reroaming",
  "lastedited_raw": 1560006405850,
  "group": "",
  "versions": [
    {
      "type": "pad",
      "url": "http://relearn.local:9001/p/reroaming",
      "code": 200
    },
    {
      "path": "publish/reroaming",
      "type": "text",
      "code": 200,
      "url": "publish/reroaming"
    },
    {
      "type": "diffhtml",
      "code": 200,
      "message": "internal error"
    },
    {
      "path": "publish/reroaming.raw.html",
      "type": "html",
      "code": 200,
      "url": "publish/reroaming.raw.html"
    },
    {
      "path": "publish/reroaming.meta.json",
      "type": "meta",
      "url": "publish/reroaming.meta.json"
    }
  ],
  "lastedited_iso": "2019-06-08T16:06:45.850000"
}