{
  "lastedited_iso": "2019-09-07T17:17:51.300000",
  "pad": "round-table-saturday",
  "padid": "round-table-saturday",
  "versions": [
    {
      "type": "pad",
      "code": 200,
      "url": "http://relearn.local:9001/p/round-table-saturday"
    },
    {
      "type": "text",
      "code": 200,
      "path": "publish/round-table-saturday",
      "url": "publish/round-table-saturday"
    },
    {
      "type": "diffhtml",
      "code": 200,
      "message": "internal error"
    },
    {
      "type": "html",
      "code": 200,
      "path": "publish/round-table-saturday.raw.html",
      "url": "publish/round-table-saturday.raw.html"
    },
    {
      "type": "meta",
      "path": "publish/round-table-saturday.meta.json",
      "url": "publish/round-table-saturday.meta.json"
    }
  ],
  "revisions": 9083,
  "pathbase": "publish/round-table-saturday",
  "lastedited_raw": 1567873071300,
  "group": "",
  "author_ids": [
    "a.VnYeTZ0RNnQpYwjP",
    "a.vGpznvRYf2D6zOK6",
    "a.4k0dyFAKQQ2s7yEo",
    "a.y41mylReK8HB61jl",
    "a.pjRnSpCmMVaT7x8q",
    "a.GuhyIwlzh6meceR9",
    "a.xaCMN0o3woWQFaYM",
    "a.VtyKW65HqTtzHE0F",
    "a.azV6h748I7lP6Js2",
    "a.Rc5vJoJcw72GooeE",
    "a.P9JnMUlgVfucmHkq",
    "a.20KYlYJMCSykzaNV",
    "a.9x5ByI3qkD7SlRwO",
    "a.FgAayXjIFPGQTTa4",
    "a.7UnCKled6I0sn4Rz",
    "a.bL28nrBRTAEEC7Ak",
    "a.zresOEapSiBPcuci",
    "a.K35rbWrNqcqfIUFj",
    "a.vCH0xAxd98xRDHXX",
    "a.d44BsTFSl9gruzOY",
    "a.tm56Dt52JL7jT0p4",
    "a.4cwLFeVMfCo1jA39"
  ]
}